module gitlab.com/ugrd/lsp-project

go 1.18

require (
	cloud.google.com/go/storage v1.30.1
	github.com/bradfitz/gomemcache v0.0.0-20230124162541-5f7a7d875746
	github.com/dgrijalva/jwt-go v3.2.0+incompatible
	github.com/gin-contrib/cors v1.4.0
	github.com/gin-gonic/gin v1.9.0
	github.com/jaswdr/faker v1.16.0
	github.com/joho/godotenv v1.4.0
	github.com/minio/minio-go v6.0.14+incompatible
	github.com/redis/go-redis/v9 v9.0.4
	github.com/stretchr/testify v1.8.2
	github.com/urfave/cli/v2 v2.24.4
	gitlab.com/ugrd/orchestration-saga/package v0.0.0-20230621070127-60fdeec12ef7
	go.uber.org/zap v1.24.0
	golang.org/x/crypto v0.9.0
	google.golang.org/grpc v1.55.0
	google.golang.org/protobuf v1.30.0
	gorm.io/driver/postgres v1.4.5
	gorm.io/gorm v1.24.1
)

require (
	cloud.google.com/go v0.110.2 // indirect
	cloud.google.com/go/compute v1.20.0 // indirect
	cloud.google.com/go/compute/metadata v0.2.3 // indirect
	cloud.google.com/go/iam v1.1.0 // indirect
	github.com/bytedance/sonic v1.8.3 // indirect
	github.com/cespare/xxhash/v2 v2.2.0 // indirect
	github.com/chenzhuoyu/base64x v0.0.0-20221115062448-fe3a3abad311 // indirect
	github.com/cpuguy83/go-md2man/v2 v2.0.2 // indirect
	github.com/davecgh/go-spew v1.1.1 // indirect
	github.com/dgryski/go-rendezvous v0.0.0-20200823014737-9f7001d12a5f // indirect
	github.com/gin-contrib/sse v0.1.0 // indirect
	github.com/go-ini/ini v1.67.0 // indirect
	github.com/go-ozzo/ozzo-validation/v4 v4.3.0 // indirect
	github.com/go-playground/locales v0.14.1 // indirect
	github.com/go-playground/universal-translator v0.18.1 // indirect
	github.com/go-playground/validator/v10 v10.11.2 // indirect
	github.com/goccy/go-json v0.10.0 // indirect
	github.com/golang/groupcache v0.0.0-20210331224755-41bb18bfe9da // indirect
	github.com/golang/protobuf v1.5.3 // indirect
	github.com/google/go-cmp v0.5.9 // indirect
	github.com/google/s2a-go v0.1.4 // indirect
	github.com/google/uuid v1.3.0 // indirect
	github.com/googleapis/enterprise-certificate-proxy v0.2.3 // indirect
	github.com/googleapis/gax-go/v2 v2.10.0 // indirect
	github.com/jackc/chunkreader/v2 v2.0.1 // indirect
	github.com/jackc/pgconn v1.13.0 // indirect
	github.com/jackc/pgio v1.0.0 // indirect
	github.com/jackc/pgpassfile v1.0.0 // indirect
	github.com/jackc/pgproto3/v2 v2.3.1 // indirect
	github.com/jackc/pgservicefile v0.0.0-20221227161230-091c0ba34f0a // indirect
	github.com/jackc/pgtype v1.12.0 // indirect
	github.com/jackc/pgx/v4 v4.17.2 // indirect
	github.com/jinzhu/inflection v1.0.0 // indirect
	github.com/jinzhu/now v1.1.5 // indirect
	github.com/json-iterator/go v1.1.12 // indirect
	github.com/klauspost/cpuid/v2 v2.2.4 // indirect
	github.com/leodido/go-urn v1.2.2 // indirect
	github.com/mattn/go-isatty v0.0.17 // indirect
	github.com/mitchellh/go-homedir v1.1.0 // indirect
	github.com/modern-go/concurrent v0.0.0-20180306012644-bacd9c7ef1dd // indirect
	github.com/modern-go/reflect2 v1.0.2 // indirect
	github.com/pelletier/go-toml/v2 v2.0.7 // indirect
	github.com/pkg/errors v0.9.1 // indirect
	github.com/pmezard/go-difflib v1.0.0 // indirect
	github.com/russross/blackfriday/v2 v2.1.0 // indirect
	github.com/shopspring/decimal v1.3.1 // indirect
	github.com/twitchyliquid64/golang-asm v0.15.1 // indirect
	github.com/ugorji/go/codec v1.2.10 // indirect
	github.com/xrash/smetrics v0.0.0-20201216005158-039620a65673 // indirect
	go.opencensus.io v0.24.0 // indirect
	go.uber.org/atomic v1.10.0 // indirect
	go.uber.org/multierr v1.11.0 // indirect
	golang.org/x/arch v0.2.0 // indirect
	golang.org/x/net v0.10.0 // indirect
	golang.org/x/oauth2 v0.8.0 // indirect
	golang.org/x/sys v0.8.0 // indirect
	golang.org/x/text v0.9.0 // indirect
	golang.org/x/xerrors v0.0.0-20220907171357-04be3eba64a2 // indirect
	google.golang.org/api v0.125.0 // indirect
	google.golang.org/appengine v1.6.7 // indirect
	google.golang.org/genproto v0.0.0-20230530153820-e85fd2cbaebc // indirect
	google.golang.org/genproto/googleapis/api v0.0.0-20230530153820-e85fd2cbaebc // indirect
	google.golang.org/genproto/googleapis/rpc v0.0.0-20230530153820-e85fd2cbaebc // indirect
	gopkg.in/yaml.v3 v3.0.1 // indirect
)
